Spatial Data Workshop - 1 Foundations
…
1.2.12 Summarize and Group_By

summarize() allows you to summarize across all observations

group_by() allows you to apply any of these manipulation verbs by group in your data

flows |> 
 dplyr::select(Date, Flow) |> 
 dplyr::mutate(Year  = format(Date, "%Y"))  |> 
 dplyr::group_by(Year) |> 
 dplyr::summarize(meanQ = mean(Flow),
           maxQ = max(Flow))
#> # A tibble: 51 × 3
#>    Year  meanQ  maxQ
#>    <chr> <dbl> <dbl>
#>  1 1973  4669. 13200
#>  2 1974  3659. 14400
#>  3 1975  3611. 14100
#>  4 1976  2340. 15000
#>  5 1977  2860. 16200
#>  6 1978  2206. 11300
#>  7 1979  2378. 12000
#>  8 1980  2548. 14700
#>  9 1981  2976. 17000
#> 10 1982  3424. 15100
#> # ℹ 41 more rows
…
